Project 1: Exploratory Data Analysis
…
u_full %>% select(country, lifeExpF, ppgdp) %>% filter (ppgdp > mean(ppgdp)) %>% group_by(country) %>% arrange(desc(ppgdp))

## Adding missing grouping variables: `region`

## # A tibble: 66 x 4
## # Groups:   country [66]
##    region        country       lifeExpF   ppgdp
##    <chr>         <chr>            <dbl>   <dbl>
##  1 Europe        Luxembourg        82.7 105095.
##  2 Europe        Norway            83.5  84589.
##  3 Asia          Qatar             78.2  72398.
##  4 Europe        Switzerland       84.7  68880.
##  5 Oceania       Australia         84.3  57119.
##  6 Europe        Denmark           81.4  55830.
##  7 Asia          Macao             83.8  49990.
##  8 Europe        Sweden            83.6  48906.
##  9 Europe        Netherlands       82.8  46910.
## 10 North America United States     81.3  46546.
## # … with 56 more rows
…
